Finding DMR — find_DMR • metR
…
#> |==========================                            | 48% ~2 s remaining     |===============================                       | 59% ~2 s remaining     |=======================================               | 72% ~1 s remaining     |========================================              | 76% ~1 s remaining     |============================================          | 83% ~1 s remaining     |==============================================        | 86% ~1 s remaining     |================================================      | 90% ~0 s remaining     |======================================================|100% ~0 s remaining     
#> $Wilcoxon
#> # A tibble: 29 x 4
#>      chr  start    end    p.value
#>    <chr>  <dbl>  <dbl>      <dbl>
#>  1  chr1  84100  84338 0.01073342
#>  2  chr1  82959  83254 0.05333685
#>  3  chr1  86359  86505 0.05333685
#>  4  chr1  83588  83698 0.05447404
#>  5  chr1  81698  81863 0.07186064
#>  6  chr1  84722  84935 0.09751254
#>  7  chr1 220557 220666 0.12500000
#>  8  chr1 221169 221365 0.12500000
#>  9  chr1  85472  85575 0.14891467
#> 10  chr1  81984  82025 0.17356817
#> # ... with 19 more rows
#> 
#> $Ttest
#> # A tibble: 29 x 4
#>      chr  start    end      p.value
#>    <chr>  <dbl>  <dbl>        <dbl>
#>  1  chr1  83588  83698 3.048765e-06
#>  2  chr1  86359  86505 2.378342e-04
#>  3  chr1  82959  83254 3.665470e-04
#>  4  chr1 221169 221365 4.016274e-04
#>  5  chr1  81984  82025 6.787773e-04
#>  6  chr1  83880  83980 7.896496e-04
#>  7  chr1  84722  84935 5.759169e-03
#>  8  chr1  87096  87175 4.736525e-02
#>  9  chr1 220557 220666 5.260321e-02
#> 10  chr1 220872 220952 4.013260e-01
#> # ... with 19 more rows
#> 
#> $KS
#> # A tibble: 29 x 4
#>      chr  start    end     p.value
#>    <chr>  <dbl>  <dbl>       <dbl>
#>  1  chr1  84100  84338 0.001823764
#>  2  chr1  82959  83254 0.013475890
#>  3  chr1  83588  83698 0.013475890
#>  4  chr1  86359  86505 0.013475890
#>  5  chr1  81698  81863 0.036631053
#>  6  chr1  84722  84935 0.036631053
#>  7  chr1 221169 221365 0.036631053
#>  8  chr1  81984  82025 0.099561848
#>  9  chr1  83880  83980 0.099561848
#> 10  chr1  85472  85575 0.099561848
#> # ... with 19 more rows
…
#finding DMR only by 'Reg.Log' with sorting on beta values and 'Wilcoxon' with sorting on p.values
find_DMR(data.tiles.small, c('Wilcoxon', 'Reg.Log'), p.value.log.reg = 0.001)
#> [1] "Started: Finding DMR by Wilcoxon test"
#> [1] "Started: Finding DMR by Logistic Regression"
#> $Wilcoxon
#> # A tibble: 29 x 4
#>      chr  start    end    p.value
#>    <chr>  <dbl>  <dbl>      <dbl>
#>  1  chr1  84100  84338 0.01073342
#>  2  chr1  82959  83254 0.05333685
#>  3  chr1  86359  86505 0.05333685
#>  4  chr1  83588  83698 0.05447404
#>  5  chr1  81698  81863 0.07186064
#>  6  chr1  84722  84935 0.09751254
#>  7  chr1 220557 220666 0.12500000
#>  8  chr1 221169 221365 0.12500000
#>  9  chr1  85472  85575 0.14891467
#> 10  chr1  81984  82025 0.17356817
#> # ... with 19 more rows
…
