Preprocessing data — preprocessing • metR
…
      sample.2
      a data frame with methylation data

    Value

    data.frame with methylation values on common positions and chromosomes from sample.1 and sample.2

    Examples

# data from package
data('sample.1')
data('sample.2')
preprocessing(sample.1, sample.2)
#> # A tibble: 8,726 x 7
#>      chr   poz  prob    no  meth unmeth meth.rate
#>    <chr> <int> <chr> <int> <int>  <int>     <dbl>
#>  1  chr1 12779     x     4     4      0 1.0000000
#>  2  chr1 12779     y     7     6      1 0.8571429
#>  3  chr1 12807     x     4     2      2 0.5000000
#>  4  chr1 12807     y     7     7      0 1.0000000
#>  5  chr1 12867     x     2     2      0 1.0000000
#>  6  chr1 12867     y     7     4      3 0.5714286
#>  7  chr1 14889     x     4     0      4 0.0000000
#>  8  chr1 14889     y     3     0      3 0.0000000
#>  9  chr1 14948     x     1     1      0 1.0000000
#> 10  chr1 14948     y     2     2      0 1.0000000
#> # ... with 8,716 more rows
…
